Measurements & Calcs Images/RIGOL_CAP_DAT/cap16_1.csv

X,CH1,CH2,Start,Increment,
Sequence,Volt,Volt,-3.000000e-04,5.000000e-07
0,2.98e+00,2.16e+00,
1,3.14e+00,2.26e+00,
2,3.08e+00,2.24e+00,
3,3.24e+00,2.34e+00,
4,3.20e+00,2.32e+00,
5,3.34e+00,2.40e+00,
6,3.30e+00,2.38e+00,
7,3.46e+00,2.50e+00,
8,3.42e+00,2.46e+00,
9,3.56e+00,2.54e+00,
10,3.52e+00,2.52e+00,
11,3.68e+00,2.64e+00,
12,3.64e+00,2.60e+00,
13,3.78e+00,2.72e+00,
14,3.74e+00,2.68e+00,
15,3.88e+00,2.78e+00,
16,3.84e+00,2.76e+00,
17,3.96e+00,2.88e+00,
18,3.92e+00,2.84e+00,
19,4.06e+00,2.94e+00,
20,4.02e+00,2.92e+00,
21,4.16e+00,3.02e+00,
22,4.10e+00,3.00e+00,
23,4.24e+00,3.10e+00,
24,4.18e+00,3.06e+00,
25,4.32e+00,3.18e+00,
26,4.28e+00,3.16e+00,
27,4.40e+00,3.26e+00,
28,4.36e+00,3.24e+00,
29,4.46e+00,3.34e+00,
30,4.42e+00,3.32e+00,
31,4.54e+00,3.44e+00,
32,4.48e+00,3.40e+00,
33,4.60e+00,3.50e+00,
34,4.54e+00,3.48e+00,
35,4.64e+00,3.58e+00,
36,4.58e+00,3.54e+00,
37,4.70e+00,3.64e+00,
38,4.64e+00,3.62e+00,
39,4.74e+00,3.72e+00,
40,4.76e+00,3.68e+00,
41,4.66e+00,3.80e+00,
42,4.68e+00,3.74e+00,
43,4.82e+00,3.86e+00,
44,4.72e+00,3.82e+00,
45,4.82e+00,3.92e+00,
46,4.74e+00,3.86e+00,
47,4.84e+00,3.96e+00,
48,4.84e+00,3.92e+00,
49,4.74e+00,4.02e+00,
50,4.84e+00,3.98e+00,
51,4.74e+00,4.06e+00,
52,4.76e+00,4.02e+00,
53,4.84e+00,4.12e+00,
54,4.82e+00,4.06e+00,
55,4.72e+00,4.16e+00,
56,4.80e+00,4.12e+00,
57,4.72e+00,4.20e+00,
58,4.80e+00,4.14e+00,
59,4.68e+00,4.22e+00,
60,4.76e+00,4.18e+00,
61,4.66e+00,4.24e+00,
62,4.72e+00,4.20e+00,
63,4.62e+00,4.26e+00,
64,4.68e+00,4.28e+00,
65,4.56e+00,4.22e+00,
66,4.62e+00,4.24e+00,
67,4.50e+00,4.30e+00,
68,4.58e+00,4.26e+00,
69,4.46e+00,4.30e+00,
70,4.52e+00,4.32e+00,
71,4.38e+00,4.26e+00,
72,4.44e+00,4.26e+00,
73,4.30e+00,4.32e+00,
74,4.36e+00,4.30e+00,
75,4.24e+00,4.24e+00,
76,4.28e+00,4.30e+00,
77,4.16e+00,4.24e+00,
78,4.20e+00,4.28e+00,
79,4.08e+00,4.22e+00,
80,4.12e+00,4.26e+00,
81,3.98e+00,4.20e+00,
82,4.02e+00,4.24e+00,
83,3.88e+00,4.16e+00,
84,3.94e+00,4.22e+00,
85,3.80e+00,4.14e+00,
86,3.84e+00,4.18e+00,
87,3.68e+00,4.08e+00,
88,3.74e+00,4.14e+00,
89,3.58e+00,4.06e+00,
90,3.64e+00,4.10e+00,
91,3.48e+00,4.02e+00,
92,3.52e+00,4.06e+00,
93,3.38e+00,3.98e+00,
94,3.40e+00,4.02e+00,
95,3.28e+00,3.92e+00,
96,3.30e+00,3.96e+00,
97,3.16e+00,3.86e+00,
98,3.20e+00,3.90e+00,
99,3.06e+00,3.80e+00,
100,3.08e+00,3.84e+00,
101,2.94e+00,3.74e+00,
102,2.96e+00,3.78e+00,
103,2.84e+00,3.68e+00,
104,2.86e+00,3.72e+00,
105,2.72e+00,3.62e+00,
106,2.76e+00,3.64e+00,
107,2.62e+00,3.54e+00,
108,2.64e+00,3.56e+00,
109,2.52e+00,3.48e+00,
110,2.54e+00,3.50e+00,
111,2.42e+00,3.40e+00,
112,2.42e+00,3.42e+00,
113,2.30e+00,3.32e+00,
114,2.32e+00,3.34e+00,
115,2.18e+00,3.24e+00,
116,2.24e+00,3.26e+00,
117,2.10e+00,3.16e+00,
118,2.14e+00,3.18e+00,
119,2.00e+00,3.06e+00,
120,2.02e+00,3.10e+00,
121,1.92e+00,2.98e+00,
122,1.96e+00,3.02e+00,
123,1.84e+00,2.92e+00,
124,1.88e+00,2.96e+00,
125,1.76e+00,2.84e+00,
126,1.80e+00,2.88e+00,
127,1.68e+00,2.76e+00,
128,1.72e+00,2.80e+00,
129,1.62e+00,2.68e+00,
130,1.66e+00,2.72e+00,
131,1.54e+00,2.60e+00,
132,1.58e+00,2.64e+00,
133,1.50e+00,2.52e+00,
134,1.54e+00,2.56e+00,
135,1.44e+00,2.46e+00,
136,1.48e+00,2.48e+00,
137,1.40e+00,2.38e+00,
138,1.46e+00,2.42e+00,
139,1.34e+00,2.32e+00,
140,1.40e+00,2.34e+00,
141,1.30e+00,2.24e+00,
142,1.36e+00,2.28e+00,
143,1.28e+00,2.16e+00,
144,1.34e+00,2.22e+00,
145,1.26e+00,2.12e+00,
146,1.32e+00,2.16e+00,
147,1.24e+00,2.06e+00,
148,1.30e+00,2.10e+00,
149,1.24e+00,2.00e+00,
150,1.30e+00,2.06e+00,
151,1.24e+00,1.94e+00,
152,1.30e+00,2.00e+00,
153,1.24e+00,1.90e+00,
154,1.32e+00,1.96e+00,
155,1.24e+00,1.86e+00,
156,1.26e+00,1.92e+00,
157,1.34e+00,1.84e+00,
158,1.30e+00,1.88e+00,
159,1.36e+00,1.80e+00,
160,1.32e+00,1.86e+00,
161,1.40e+00,1.76e+00,
162,1.34e+00,1.82e+00,
163,1.44e+00,1.74e+00,
164,1.40e+00,1.80e+00,
165,1.50e+00,1.72e+00,
166,1.44e+00,1.78e+00,
167,1.54e+00,1.72e+00,
168,1.50e+00,1.78e+00,
169,1.60e+00,1.70e+00,
170,1.56e+00,1.70e+00,
171,1.68e+00,1.78e+00,
172,1.64e+00,1.70e+00,
173,1.74e+00,1.76e+00,
174,1.70e+00,1.70e+00,
175,1.82e+00,1.78e+00,
176,1.78e+00,1.78e+00,
177,1.90e+00,1.72e+00,
178,1.86e+00,1.72e+00,
179,1.98e+00,1.80e+00,
180,1.96e+00,1.74e+00,
181,2.08e+00,1.82e+00,
182,2.04e+00,1.76e+00,
183,2.16e+00,1.84e+00,
184,2.14e+00,1.80e+00,
185,2.26e+00,1.88e+00,
186,2.24e+00,1.82e+00,
187,2.36e+00,1.92e+00,
188,2.34e+00,1.86e+00,
189,2.46e+00,1.96e+00,
190,2.46e+00,1.90e+00,
191,2.58e+00,2.00e+00,
192,2.54e+00,1.96e+00,
193,2.68e+00,2.04e+00,
194,2.66e+00,2.00e+00,
195,2.80e+00,2.10e+00,
196,2.76e+00,2.06e+00,
197,2.90e+00,2.16e+00,
198,2.88e+00,2.12e+00,
199,3.02e+00,2.22e+00,
200,3.00e+00,2.18e+00,
201,3.14e+00,2.28e+00,
202,3.08e+00,2.24e+00,
203,3.24e+00,2.34e+00,
204,3.22e+00,2.30e+00,
205,3.34e+00,2.42e+00,
206,3.30e+00,2.38e+00,
207,3.48e+00,2.48e+00,
208,3.42e+00,2.46e+00,
209,3.58e+00,2.56e+00,
210,3.54e+00,2.54e+00,
211,3.68e+00,2.64e+00,
212,3.64e+00,2.60e+00,
213,3.78e+00,2.72e+00,
214,3.74e+00,2.68e+00,
215,3.88e+00,2.80e+00,
216,3.84e+00,2.76e+00,
217,3.98e+00,2.86e+00,
218,3.92e+00,2.84e+00,
219,4.06e+00,2.96e+00,
220,4.02e+00,2.90e+00,
221,4.16e+00,3.04e+00,
222,4.10e+00,3.00e+00,
223,4.24e+00,3.12e+00,
224,4.18e+00,3.08e+00,
225,4.32e+00,3.18e+00,
226,4.28e+00,3.14e+00,
227,4.40e+00,3.28e+00,
228,4.34e+00,3.24e+00,
229,4.46e+00,3.34e+00,
230,4.42e+00,3.32e+00,
231,4.54e+00,3.42e+00,
232,4.48e+00,3.40e+00,
233,4.58e+00,3.50e+00,
234,4.54e+00,3.48e+00,
235,4.64e+00,3.58e+00,
236,4.60e+00,3.54e+00,
237,4.70e+00,3.66e+00,
238,4.64e+00,3.62e+00,
239,4.74e+00,3.72e+00,
240,4.66e+00,3.68e+00,
241,4.78e+00,3.78e+00,
242,4.68e+00,3.74e+00,
243,4.80e+00,3.86e+00,
244,4.82e+00,3.80e+00,
245,4.72e+00,3.90e+00,
246,4.72e+00,3.86e+00,
247,4.84e+00,3.96e+00,
248,4.84e+00,3.92e+00,
249,4.74e+00,4.02e+00,
250,4.84e+00,3.98e+00,
251,4.76e+00,4.06e+00,
252,4.84e+00,4.04e+00,
253,4.74e+00,4.12e+00,
254,4.84e+00,4.06e+00,
255,4.72e+00,4.16e+00,
256,4.82e+00,4.10e+00,
257,4.72e+00,4.18e+00,
258,4.78e+00,4.14e+00,
259,4.70e+00,4.22e+00,
260,4.76e+00,4.18e+00,
261,4.64e+00,4.24e+00,
262,4.72e+00,4.20e+00,
263,4.60e+00,4.28e+00,
264,4.68e+00,4.22e+00,
265,4.58e+00,4.28e+00,
266,4.62e+00,4.30e+00,
267,4.50e+00,4.24e+00,
268,4.58e+00,4.26e+00,
269,4.46e+00,4.32e+00,
270,4.50e+00,4.32e+00,
271,4.38e+00,4.26e+00,
272,4.46e+00,4.32e+00,
273,4.34e+00,4.26e+00,
274,4.36e+00,4.32e+00,
275,4.24e+00,4.26e+00,
276,4.30e+00,4.30e+00,
277,4.18e+00,4.24e+00,
278,4.22e+00,4.30e+00,
279,4.08e+00,4.22e+00,
280,4.12e+00,4.28e+00,
281,3.98e+00,4.20e+00,
282,4.04e+00,4.26e+00,
283,3.88e+00,4.18e+00,
284,3.94e+00,4.22e+00,
285,3.80e+00,4.14e+00,
286,3.84e+00,4.18e+00,
287,3.70e+00,4.10e+00,
288,3.74e+00,4.16e+00,
289,3.60e+00,4.08e+00,
290,3.64e+00,4.12e+00,
291,3.50e+00,4.02e+00,
292,3.54e+00,4.06e+00,
293,3.40e+00,3.98e+00,
294,3.42e+00,4.02e+00,
295,3.26e+00,3.94e+00,
296,3.30e+00,3.96e+00,
297,3.16e+00,3.86e+00,
298,3.20e+00,3.90e+00,
299,3.04e+00,3.80e+00,
300,3.08e+00,3.84e+00,
301,2.94e+00,3.76e+00,
302,2.98e+00,3.78e+00,
303,2.82e+00,3.68e+00,
304,2.86e+00,3.72e+00,
305,2.72e+00,3.62e+00,
306,2.76e+00,3.64e+00,
307,2.62e+00,3.54e+00,
308,2.64e+00,3.56e+00,
309,2.52e+00,3.46e+00,
310,2.52e+00,3.48e+00,
311,2.40e+00,3.38e+00,
312,2.44e+00,3.42e+00,
313,2.30e+00,3.32e+00,
314,2.32e+00,3.34e+00,
315,2.20e+00,3.24e+00,
316,2.22e+00,3.26e+00,
317,2.10e+00,3.14e+00,
318,2.14e+00,3.18e+00,
319,2.00e+00,3.06e+00,
320,2.04e+00,3.10e+00,
321,1.92e+00,2.98e+00,
322,1.96e+00,3.02e+00,
323,1.84e+00,2.90e+00,
324,1.88e+00,2.94e+00,
325,1.76e+00,2.82e+00,
326,1.80e+00,2.86e+00,
327,1.68e+00,2.74e+00,
328,1.72e+00,2.80e+00,
329,1.62e+00,2.68e+00,
330,1.64e+00,2.70e+00,
331,1.54e+00,2.60e+00,
332,1.58e+00,2.64e+00,
333,1.50e+00,2.52e+00,
334,1.54e+00,2.56e+00,
335,1.44e+00,2.44e+00,
336,1.48e+00,2.48e+00,
337,1.40e+00,2.38e+00,
338,1.42e+00,2.40e+00,
339,1.34e+00,2.32e+00,
340,1.38e+00,2.34e+00,
341,1.30e+00,2.24e+00,
342,1.36e+00,2.28e+00,
343,1.28e+00,2.16e+00,
344,1.32e+00,2.20e+00,
345,1.24e+00,2.12e+00,
346,1.32e+00,2.14e+00,
347,1.24e+00,2.04e+00,
348,1.30e+00,2.10e+00,
349,1.22e+00,1.98e+00,
350,1.22e+00,2.04e+00,
351,1.30e+00,1.94e+00,
352,1.22e+00,1.98e+00,
353,1.30e+00,1.90e+00,
354,1.24e+00,1.94e+00,
355,1.32e+00,1.86e+00,
356,1.26e+00,1.92e+00,
357,1.32e+00,1.82e+00,
358,1.28e+00,1.88e+00,
359,1.36e+00,1.80e+00,
360,1.30e+00,1.84e+00,
361,1.40e+00,1.76e+00,
362,1.34e+00,1.82e+00,
363,1.44e+00,1.74e+00,
364,1.40e+00,1.80e+00,
365,1.50e+00,1.72e+00,
366,1.44e+00,1.80e+00,
367,1.56e+00,1.70e+00,
368,1.50e+00,1.76e+00,
369,1.60e+00,1.70e+00,
370,1.56e+00,1.76e+00,
371,1.66e+00,1.70e+00,
372,1.64e+00,1.70e+00,
373,1.74e+00,1.78e+00,
374,1.70e+00,1.76e+00,
375,1.82e+00,1.70e+00,
376,1.78e+00,1.70e+00,
377,1.90e+00,1.78e+00,
378,1.86e+00,1.72e+00,
379,1.98e+00,1.80e+00,
380,1.94e+00,1.74e+00,
381,2.06e+00,1.82e+00,
382,2.04e+00,1.76e+00,
383,2.16e+00,1.84e+00,
384,2.12e+00,1.78e+00,
385,2.26e+00,1.88e+00,
386,2.24e+00,1.82e+00,
387,2.36e+00,1.90e+00,
388,2.34e+00,1.86e+00,
389,2.46e+00,1.94e+00,
390,2.44e+00,1.90e+00,
391,2.56e+00,1.98e+00,
392,2.54e+00,1.94e+00,
393,2.66e+00,2.04e+00,
394,2.64e+00,2.00e+00,
395,2.78e+00,2.10e+00,
396,2.76e+00,2.04e+00,
397,2.90e+00,2.14e+00,
398,2.86e+00,2.10e+00,
399,3.00e+00,2.20e+00,
400,2.96e+00,2.16e+00,
401,3.12e+00,2.26e+00,
402,3.08e+00,2.22e+00,
403,3.22e+00,2.34e+00,
404,3.20e+00,2.28e+00,
405,3.34e+00,2.40e+00,
406,3.32e+00,2.38e+00,
407,3.44e+00,2.50e+00,
408,3.42e+00,2.46e+00,
409,3.56e+00,2.56e+00,
410,3.52e+00,2.52e+00,
411,3.68e+00,2.64e+00,
412,3.64e+00,2.60e+00,
413,3.76e+00,2.72e+00,
414,3.72e+00,2.68e+00,
415,3.88e+00,2.80e+00,
416,3.82e+00,2.74e+00,
417,3.98e+00,2.88e+00,
418,3.92e+00,2.84e+00,
419,4.06e+00,2.94e+00,
420,4.00e+00,2.92e+00,
421,4.16e+00,3.02e+00,
422,4.10e+00,3.00e+00,
423,4.24e+00,3.10e+00,
424,4.18e+00,3.06e+00,
425,4.32e+00,3.18e+00,
426,4.26e+00,3.16e+00,
427,4.40e+00,3.26e+00,
428,4.36e+00,3.24e+00,
429,4.46e+00,3.34e+00,
430,4.42e+00,3.32e+00,
431,4.54e+00,3.44e+00,
432,4.48e+00,3.40e+00,
433,4.58e+00,3.50e+00,
434,4.52e+00,3.46e+00,
435,4.66e+00,3.58e+00,
436,4.58e+00,3.54e+00,
437,4.70e+00,3.64e+00,
438,4.62e+00,3.62e+00,
439,4.74e+00,3.72e+00,
440,4.68e+00,3.68e+00,
441,4.78e+00,3.78e+00,
442,4.70e+00,3.74e+00,
443,4.78e+00,3.86e+00,
444,4.72e+00,3.80e+00,
445,4.82e+00,3.90e+00,
446,4.74e+00,3.86e+00,
447,4.84e+00,3.98e+00,
448,4.74e+00,3.92e+00,
449,4.86e+00,4.02e+00,
450,4.84e+00,3.98e+00,
451,4.76e+00,4.06e+00,
452,4.84e+00,4.02e+00,
453,4.74e+00,4.12e+00,
454,4.84e+00,4.06e+00,
455,4.72e+00,4.16e+00,
456,4.82e+00,4.12e+00,
457,4.70e+00,4.18e+00,
458,4.80e+00,4.14e+00,
459,4.68e+00,4.22e+00,
460,4.76e+00,4.18e+00,
461,4.66e+00,4.26e+00,
462,4.74e+00,4.20e+00,
463,4.62e+00,4.28e+00,
464,4.70e+00,4.22e+00,
465,4.56e+00,4.30e+00,
466,4.64e+00,4.24e+00,
467,4.50e+00,4.30e+00,
468,4.58e+00,4.26e+00,
469,4.46e+00,4.32e+00,
470,4.52e+00,4.32e+00,
471,4.38e+00,4.26e+00,
472,4.46e+00,4.32e+00,
473,4.34e+00,4.26e+00,
474,4.38e+00,4.26e+00,
475,4.24e+00,4.32e+00,
476,4.28e+00,4.30e+00,
477,4.16e+00,4.24e+00,
478,4.22e+00,4.30e+00,
479,4.08e+00,4.22e+00,
480,4.12e+00,4.28e+00,
481,3.98e+00,4.20e+00,
482,4.04e+00,4.24e+00,
483,3.90e+00,4.18e+00,
484,3.94e+00,4.22e+00,
485,3.80e+00,4.14e+00,
486,3.84e+00,4.20e+00,
487,3.70e+00,4.10e+00,
488,3.74e+00,4.14e+00,
489,3.60e+00,4.06e+00,
490,3.64e+00,4.12e+00,
491,3.48e+00,4.02e+00,
492,3.52e+00,4.06e+00,
493,3.38e+00,3.98e+00,
494,3.40e+00,4.02e+00,
495,3.28e+00,3.92e+00,
496,3.30e+00,3.96e+00,
497,3.16e+00,3.86e+00,
498,3.18e+00,3.90e+00,
499,3.04e+00,3.80e+00,
500,3.08e+00,3.84e+00,
501,2.94e+00,3.74e+00,
502,2.98e+00,3.78e+00,
503,2.84e+00,3.68e+00,
504,2.86e+00,3.72e+00,
505,2.70e+00,3.62e+00,
506,2.74e+00,3.64e+00,
507,2.62e+00,3.54e+00,
508,2.64e+00,3.56e+00,
509,2.50e+00,3.46e+00,
510,2.52e+00,3.50e+00,
511,2.40e+00,3.38e+00,
512,2.42e+00,3.42e+00,
513,2.30e+00,3.30e+00,
514,2.32e+00,3.34e+00,
515,2.18e+00,3.24e+00,
516,2.22e+00,3.26e+00,
517,2.08e+00,3.14e+00,
518,2.12e+00,3.18e+00,
519,2.00e+00,3.06e+00,
520,2.04e+00,3.10e+00,
521,1.90e+00,2.98e+00,
522,1.94e+00,3.02e+00,
523,1.82e+00,2.90e+00,
524,1.86e+00,2.94e+00,
525,1.74e+00,2.82e+00,
526,1.78e+00,2.86e+00,
527,1.68e+00,2.74e+00,
528,1.72e+00,2.78e+00,
529,1.60e+00,2.66e+00,
530,1.64e+00,2.70e+00,
531,1.52e+00,2.58e+00,
532,1.58e+00,2.62e+00,
533,1.48e+00,2.50e+00,
534,1.52e+00,2.54e+00,
535,1.42e+00,2.44e+00,
536,1.46e+00,2.48e+00,
537,1.36e+00,2.36e+00,
538,1.42e+00,2.40e+00,
539,1.32e+00,2.30e+00,
540,1.38e+00,2.32e+00,
541,1.28e+00,2.22e+00,
542,1.34e+00,2.26e+00,
543,1.26e+00,2.16e+00,
544,1.32e+00,2.20e+00,
545,1.22e+00,2.10e+00,
546,1.30e+00,2.14e+00,
547,1.22e+00,2.04e+00,
548,1.28e+00,2.08e+00,
549,1.22e+00,1.98e+00,
550,1.22e+00,2.04e+00,
551,1.28e+00,1.94e+00,
552,1.28e+00,1.98e+00,
553,1.22e+00,1.88e+00,
554,1.22e+00,1.94e+00,
555,1.30e+00,1.86e+00,
556,1.32e+00,1.90e+00,
557,1.24e+00,1.82e+00,
558,1.26e+00,1.86e+00,
559,1.36e+00,1.78e+00,
560,1.30e+00,1.84e+00,
561,1.38e+00,1.76e+00,
562,1.34e+00,1.82e+00,
563,1.44e+00,1.72e+00,
564,1.40e+00,1.78e+00,
565,1.48e+00,1.72e+00,
566,1.44e+00,1.78e+00,
567,1.54e+00,1.70e+00,
568,1.50e+00,1.70e+00,
569,1.60e+00,1.76e+00,
570,1.56e+00,1.70e+00,
571,1.68e+00,1.76e+00,
572,1.62e+00,1.68e+00,
573,1.74e+00,1.76e+00,
574,1.70e+00,1.70e+00,
575,1.82e+00,1.78e+00,
576,1.78e+00,1.70e+00,
577,1.90e+00,1.78e+00,
578,1.86e+00,1.72e+00,
579,1.98e+00,1.80e+00,
580,1.94e+00,1.74e+00,
581,2.06e+00,1.82e+00,
582,2.02e+00,1.76e+00,
583,2.16e+00,1.84e+00,
584,2.14e+00,1.78e+00,
585,2.26e+00,1.88e+00,
586,2.24e+00,1.82e+00,
587,2.36e+00,1.92e+00,
588,2.34e+00,1.84e+00,
589,2.48e+00,1.94e+00,
590,2.44e+00,1.90e+00,
591,2.58e+00,1.98e+00,
592,2.54e+00,1.94e+00,
593,2.68e+00,2.04e+00,
594,2.64e+00,1.98e+00,
595,2.78e+00,2.10e+00,
596,2.76e+00,2.06e+00,
597,2.90e+00,2.14e+00,
598,2.88e+00,2.10e+00,
599,3.00e+00,2.20e+00,
600,2.98e+00,2.18e+00,
601,3.12e+00,2.28e+00,
602,3.10e+00,2.22e+00,
603,3.22e+00,2.34e+00,
604,3.18e+00,2.30e+00,
605,3.34e+00,2.40e+00,
606,3.32e+00,2.36e+00,
607,3.44e+00,2.48e+00,
608,3.42e+00,2.44e+00,
609,3.58e+00,2.56e+00,
610,3.52e+00,2.52e+00,
611,3.66e+00,2.64e+00,
612,3.62e+00,2.60e+00,
613,3.76e+00,2.70e+00,
614,3.72e+00,2.66e+00,
615,3.86e+00,2.80e+00,
616,3.82e+00,2.76e+00,
617,3.96e+00,2.86e+00,
618,3.92e+00,2.82e+00,
619,4.06e+00,2.94e+00,
620,4.00e+00,2.90e+00,
621,4.14e+00,3.02e+00,
622,4.10e+00,2.98e+00,
623,4.22e+00,3.10e+00,
624,4.18e+00,3.06e+00,
625,4.30e+00,3.18e+00,
626,4.26e+00,3.16e+00,
627,4.40e+00,3.26e+00,
628,4.34e+00,3.24e+00,
629,4.46e+00,3.34e+00,
630,4.40e+00,3.30e+00,
631,4.52e+00,3.42e+00,
632,4.48e+00,3.40e+00,
633,4.58e+00,3.50e+00,
634,4.52e+00,3.46e+00,
635,4.64e+00,3.58e+00,
636,4.58e+00,3.54e+00,
637,4.70e+00,3.66e+00,
638,4.62e+00,3.60e+00,
639,4.74e+00,3.72e+00,
640,4.66e+00,3.68e+00,
641,4.76e+00,3.78e+00,
642,4.68e+00,3.74e+00,
643,4.78e+00,3.84e+00,
644,4.80e+00,3.80e+00,
645,4.70e+00,3.90e+00,
646,4.82e+00,3.86e+00,
647,4.72e+00,3.96e+00,
648,4.84e+00,3.92e+00,
649,4.74e+00,4.02e+00,
650,4.76e+00,3.98e+00,
651,4.84e+00,4.06e+00,
652,4.84e+00,4.02e+00,
653,4.74e+00,4.10e+00,
654,4.82e+00,4.06e+00,
655,4.72e+00,4.16e+00,
656,4.80e+00,4.10e+00,
657,4.70e+00,4.18e+00,
658,4.80e+00,4.14e+00,
659,4.68e+00,4.22e+00,
660,4.76e+00,4.22e+00,
661,4.64e+00,4.16e+00,
662,4.72e+00,4.18e+00,
663,4.60e+00,4.26e+00,
664,4.66e+00,4.28e+00,
665,4.56e+00,4.20e+00,
666,4.62e+00,4.22e+00,
667,4.50e+00,4.30e+00,
668,4.56e+00,4.30e+00,
669,4.44e+00,4.24e+00,
670,4.50e+00,4.26e+00,
671,4.38e+00,4.32e+00,
672,4.44e+00,4.30e+00,
673,4.32e+00,4.24e+00,
674,4.36e+00,4.30e+00,
675,4.22e+00,4.24e+00,
676,4.28e+00,4.30e+00,
677,4.16e+00,4.24e+00,
678,4.20e+00,4.28e+00,
679,4.06e+00,4.22e+00,
680,4.12e+00,4.26e+00,
681,3.98e+00,4.20e+00,
682,4.02e+00,4.24e+00,
683,3.88e+00,4.16e+00,
684,3.94e+00,4.22e+00,
685,3.80e+00,4.14e+00,
686,3.84e+00,4.18e+00,
687,3.70e+00,4.10e+00,
688,3.74e+00,4.14e+00,
689,3.58e+00,4.06e+00,
690,3.62e+00,4.10e+00,
691,3.48e+00,4.02e+00,
692,3.52e+00,4.06e+00,
693,3.38e+00,3.96e+00,
694,3.40e+00,4.00e+00,
695,3.28e+00,3.90e+00,
696,3.30e+00,3.96e+00,
697,3.16e+00,3.86e+00,
698,3.18e+00,3.90e+00,
699,3.04e+00,3.80e+00,
700,3.08e+00,3.84e+00,
701,2.92e+00,3.74e+00,
702,2.96e+00,3.78e+00,
703,2.82e+00,3.68e+00,
704,2.86e+00,3.70e+00,
705,2.72e+00,3.60e+00,
706,2.74e+00,3.62e+00,
707,2.60e+00,3.52e+00,
708,2.62e+00,3.56e+00,
709,2.50e+00,3.46e+00,
710,2.54e+00,3.48e+00,
711,2.40e+00,3.38e+00,
712,2.42e+00,3.40e+00,
713,2.28e+00,3.30e+00,
714,2.30e+00,3.34e+00,
715,2.20e+00,3.24e+00,
716,2.22e+00,3.26e+00,
717,2.10e+00,3.14e+00,
718,2.12e+00,3.18e+00,
719,2.00e+00,3.06e+00,
720,2.04e+00,3.10e+00,
721,1.90e+00,2.98e+00,
722,1.96e+00,3.00e+00,
723,1.82e+00,2.90e+00,
724,1.86e+00,2.94e+00,
725,1.74e+00,2.82e+00,
726,1.78e+00,2.86e+00,
727,1.66e+00,2.74e+00,
728,1.72e+00,2.78e+00,
729,1.60e+00,2.66e+00,
730,1.64e+00,2.70e+00,
731,1.54e+00,2.58e+00,
732,1.58e+00,2.62e+00,
733,1.48e+00,2.52e+00,
734,1.52e+00,2.54e+00,
735,1.42e+00,2.44e+00,
736,1.48e+00,2.46e+00,
737,1.38e+00,2.36e+00,
738,1.42e+00,2.40e+00,
739,1.32e+00,2.30e+00,
740,1.38e+00,2.32e+00,
741,1.30e+00,2.22e+00,
742,1.34e+00,2.26e+00,
743,1.28e+00,2.16e+00,
744,1.32e+00,2.20e+00,
745,1.26e+00,2.10e+00,
746,1.30e+00,2.14e+00,
747,1.22e+00,2.04e+00,
748,1.22e+00,2.08e+00,
749,1.30e+00,1.98e+00,
750,1.22e+00,2.04e+00,
751,1.30e+00,1.94e+00,
752,1.22e+00,2.00e+00,
753,1.30e+00,1.90e+00,
754,1.22e+00,1.94e+00,
755,1.32e+00,1.86e+00,
756,1.26e+00,1.90e+00,
757,1.34e+00,1.82e+00,
758,1.28e+00,1.88e+00,
759,1.36e+00,1.78e+00,
760,1.30e+00,1.84e+00,
761,1.40e+00,1.76e+00,
762,1.36e+00,1.82e+00,
763,1.44e+00,1.74e+00,
764,1.40e+00,1.80e+00,
765,1.50e+00,1.72e+00,
766,1.44e+00,1.78e+00,
767,1.54e+00,1.70e+00,
768,1.50e+00,1.70e+00,
769,1.60e+00,1.76e+00,
770,1.56e+00,1.70e+00,
771,1.68e+00,1.76e+00,
772,1.62e+00,1.76e+00,
773,1.74e+00,1.70e+00,
774,1.70e+00,1.70e+00,
775,1.82e+00,1.78e+00,
776,1.78e+00,1.72e+00,
777,1.90e+00,1.78e+00,
778,1.86e+00,1.72e+00,
779,1.98e+00,1.80e+00,
780,1.94e+00,1.74e+00,
781,2.06e+00,1.82e+00,
782,2.04e+00,1.76e+00,
783,2.16e+00,1.84e+00,
784,2.14e+00,1.80e+00,
785,2.26e+00,1.88e+00,
786,2.22e+00,1.82e+00,
787,2.36e+00,1.92e+00,
788,2.34e+00,1.86e+00,
789,2.46e+00,1.94e+00,
790,2.44e+00,1.90e+00,
791,2.56e+00,2.00e+00,
792,2.54e+00,1.96e+00,
793,2.68e+00,2.04e+00,
794,2.66e+00,2.00e+00,
795,2.80e+00,2.10e+00,
796,2.76e+00,2.04e+00,
797,2.90e+00,2.14e+00,
798,2.86e+00,2.10e+00,
799,3.02e+00,2.20e+00,
800,2.98e+00,2.16e+00,
801,3.12e+00,2.28e+00,
802,3.08e+00,2.24e+00,
803,3.24e+00,2.34e+00,
804,3.20e+00,2.30e+00,
805,3.34e+00,2.42e+00,
806,3.32e+00,2.38e+00,
807,3.46e+00,2.50e+00,
808,3.42e+00,2.44e+00,
809,3.58e+00,2.56e+00,
810,3.52e+00,2.52e+00,
811,3.66e+00,2.62e+00,
812,3.62e+00,2.60e+00,
813,3.78e+00,2.70e+00,
814,3.72e+00,2.68e+00,
815,3.88e+00,2.80e+00,
816,3.82e+00,2.76e+00,
817,3.98e+00,2.88e+00,
818,3.92e+00,2.84e+00,
819,4.06e+00,2.94e+00,
820,4.02e+00,2.90e+00,
821,4.16e+00,3.02e+00,
822,4.10e+00,2.98e+00,
823,4.24e+00,3.10e+00,
824,4.18e+00,3.06e+00,
825,4.32e+00,3.18e+00,
826,4.28e+00,3.16e+00,
827,4.40e+00,3.28e+00,
828,4.34e+00,3.24e+00,
829,4.48e+00,3.34e+00,
830,4.40e+00,3.32e+00,
831,4.52e+00,3.42e+00,
832,4.48e+00,3.40e+00,
833,4.60e+00,3.50e+00,
834,4.54e+00,3.46e+00,
835,4.66e+00,3.58e+00,
836,4.58e+00,3.54e+00,
837,4.70e+00,3.66e+00,
838,4.64e+00,3.62e+00,
839,4.76e+00,3.72e+00,
840,4.66e+00,3.68e+00,
841,4.78e+00,3.78e+00,
842,4.70e+00,3.74e+00,
843,4.80e+00,3.84e+00,
844,4.74e+00,3.82e+00,
845,4.82e+00,3.90e+00,
846,4.72e+00,3.86e+00,
847,4.84e+00,3.96e+00,
848,4.84e+00,3.92e+00,
849,4.74e+00,4.02e+00,
850,4.84e+00,3.98e+00,
851,4.74e+00,4.06e+00,
852,4.84e+00,4.02e+00,
853,4.74e+00,4.12e+00,
854,4.84e+00,4.08e+00,
855,4.72e+00,4.16e+00,
856,4.82e+00,4.10e+00,
857,4.70e+00,4.18e+00,
858,4.78e+00,4.14e+00,
859,4.68e+00,4.22e+00,
860,4.76e+00,4.16e+00,
861,4.64e+00,4.24e+00,
862,4.72e+00,4.20e+00,
863,4.62e+00,4.28e+00,
864,4.66e+00,4.24e+00,
865,4.58e+00,4.30e+00,
866,4.64e+00,4.30e+00,
867,4.50e+00,4.24e+00,
868,4.58e+00,4.26e+00,
869,4.46e+00,4.32e+00,
870,4.50e+00,4.32e+00,
